{
  "apiVersion": "1.0",
  "swaggerVersion": "1.2",
  "basePath": "http://localhost:3000",
  "apis": [
    {
      "path": "//apidocs/api/v1/topics.{format}",
      "description": "Topics"
    }
  ],
  "authorizations": null
}